{
    "full_name": "Spatcholla",
    "email": "spatcholla@gmail.com",
    "gitlab_username": "spatcholla",
    "gitlab_repo": "py-project-template",
    "default_branch": "main",
    "project_name": "PyProject",
    "project_url":"https://gitlab.com/{{ cookiecutter.gitlab_username }}/{{ cookiecutter.gitlab_repo }}",
    "docs_url": "https://{{ cookiecutter.gitlab_username }}.gitlab.io/{{ cookiecutter.gitlab_repo }}",
    "project_short_description": "Python project starter.",
    "package_name": "src",
    "python_major_version": 3,
    "python_minor_version": 9,
    "copyright_holder":"{{ cookiecutter.full_name }}",
    "version": "0.1.0",
    "create_author_file": "y",
    "open_source_license": ["MIT license", "BSD license", "ISC license", "Apache Software License 2.0", "GNU General Public License v3", "Not open source"]
}